[
    {"value":"AL", "label":"state.us.alabama"},
    {"value":"AK", "label":"state.us.alaska"},
    {"value":"AZ", "label":"state.us.arizona"},
    {"value":"AR", "label":"state.us.arkansas"},
    {"value":"CA", "label":"state.us.california"},
    {"value":"CO", "label":"state.us.colorado"},
    {"value":"CT", "label":"state.us.connecticut"},
    {"value":"DC", "label":"state.us.dc"},
    {"value":"DE", "label":"state.us.delaware"},
    {"value":"FL", "label":"state.us.florida"},
    {"value":"GA", "label":"state.us.georgia"},
    {"value":"HI", "label":"state.us.hawaii"},
    {"value":"ID", "label":"state.us.idaho"},
    {"value":"IL", "label":"state.us.illinois"},
    {"value":"IN", "label":"state.us.indiana"},
    {"value":"IA", "label":"state.us.iowa"},
    {"value":"KS", "label":"state.us.kansas"},
    {"value":"KY", "label":"state.us.kentucky"},
    {"value":"LA", "label":"state.us.louisiana"},
    {"value":"ME", "label":"state.us.maine"},
    {"value":"MD", "label":"state.us.maryland"},
    {"value":"MA", "label":"state.us.massachusetts"},
    {"value":"MI", "label":"state.us.michigan"},
    {"value":"MN", "label":"state.us.minnesota"},
    {"value":"MS", "label":"state.us.mississippi"},
    {"value":"MO", "label":"state.us.missouri"},
    {"value":"MT", "label":"state.us.montana"},
    {"value":"NE", "label":"state.us.nebraska"},
    {"value":"NV", "label":"state.us.nevada"},
    {"value":"NH", "label":"state.us.newhampshire"},
    {"value":"NJ", "label":"state.us.newjersey"},
    {"value":"NM", "label":"state.us.newmexico"},
    {"value":"NY", "label":"state.us.newyork"},
    {"value":"NC", "label":"state.us.northcarolina"},
    {"value":"ND", "label":"state.us.northdakota"},
    {"value":"OH", "label":"state.us.ohio"},
    {"value":"OK", "label":"state.us.oklahoma"},
    {"value":"OR", "label":"state.us.oregon"},
    {"value":"PA", "label":"state.us.pennsylvania"},
    {"value":"RI", "label":"state.us.rhodeisland"},
    {"value":"SC", "label":"state.us.southcarolina"},
    {"value":"SD", "label":"state.us.southdakota"},
    {"value":"TN", "label":"state.us.tennessee"},
    {"value":"TX", "label":"state.us.texas"},
    {"value":"UT", "label":"state.us.utah"},
    {"value":"VT", "label":"state.us.vermont"},
    {"value":"VA", "label":"state.us.virginia"},
    {"value":"WA", "label":"state.us.washington"},
    {"value":"WV", "label":"state.us.westvirginia"},
    {"value":"WI", "label":"state.us.wisconsin"},
    {"value":"WY", "label":"state.us.wyoming"},
    {"value":"AS", "label":"state.us.americansamoa"},
    {"value":"GU", "label":"state.us.guam"},
    {"value":"PR", "label":"state.us.puertorico"},
    {"value":"VI", "label":"state.us.virginislands"}
]